[
    {
        "name": "Bratva",
        "role": "473221292368330752"
    },
    {
        "name": "Yakuza",
        "role": "473221597054894081"
    },
    {
        "name": "Triad",
        "role": "473221404213379072"
    },
    {
        "name": "Camorra",
        "role": "473221719528701956"
    }
]